3 Results – Amazon Shopping Analysis
…
Warning: package 'maps' was built under R version 4.4.2

Code

# Calculate the total number of purchases in each state
total_purchases_by_state <- joined_df %>%
  group_by(`Q-demos-state`) %>%
  summarise(total_purchases = n()) %>%
  mutate(`Q-demos-state` = tolower(`Q-demos-state`)) %>%
  arrange(desc(total_purchases))

# View the resulting dataframe
print(total_purchases_by_state)

# A tibble: 52 × 2
   `Q-demos-state` total_purchases
   <chr>                     <int>
 1 california               192086
 2 texas                    139562
 3 florida                  114839
 4 new york                 105414
 5 pennsylvania             103237
 6 ohio                      88496
 7 north carolina            78065
 8 illinois                  77178
 9 michigan                  61401
10 georgia                   59739
# ℹ 42 more rows
…
